codes/CPU.vcd
$date
	Thu Jul  1 10:36:33 2021
$end
$version
	Icarus Verilog
$end
$timescale
	1s
$end
$scope module testbench $end
$var wire 32 ! cpu_mem_addr [31:0] $end
$var wire 256 " cpu_mem_data [255:0] $end
$var wire 1 # cpu_mem_enable $end
$var wire 1 $ cpu_mem_write $end
$var wire 1 % mem_cpu_ack $end
$var wire 256 & mem_cpu_data [255:0] $end
$var reg 1 ' Clk $end
$var reg 1 ( Reset $end
$var reg 1 ) Start $end
$var reg 27 * address [26:0] $end
$var integer 32 + counter [31:0] $end
$var reg 1 , flag $end
$var integer 32 - i [31:0] $end
$var reg 4 . index [3:0] $end
$var integer 32 / outfile [31:0] $end
$var integer 32 0 outfile2 [31:0] $end
$var reg 25 1 tag [24:0] $end
$scope module CPU $end
$var wire 32 2 ALU0 [31:0] $end
$var wire 32 3 ALU1 [31:0] $end
$var wire 4 4 ALUCtrl [3:0] $end
$var wire 2 5 ALUOp_EX [1:0] $end
$var wire 2 6 ALUOp_ID [1:0] $end
$var wire 1 7 ALUSrc_EX $end
$var wire 1 8 ALUSrc_ID $end
$var wire 32 9 ALU_result [31:0] $end
$var wire 32 : ALU_result_MEM [31:0] $end
$var wire 32 ; ALU_result_WB [31:0] $end
$var wire 1 < Branch $end
$var wire 1 = Flush $end
$var wire 2 > ForwardA [1:0] $end
$var wire 2 ? ForwardB [1:0] $end
$var wire 32 @ ImmGen_EX [31:0] $end
$var wire 32 A ImmGen_ID [31:0] $end
$var wire 32 B MUX1_0 [31:0] $end
$var wire 32 C MUX1_1 [31:0] $end
$var wire 1 D MemRead_EX $end
$var wire 1 E MemRead_ID $end
$var wire 1 F MemRead_MEM $end
$var wire 1 G MemWrite_EX $end
$var wire 1 H MemWrite_ID $end
$var wire 1 I MemWrite_MEM $end
$var wire 1 J MemtoReg_EX $end
$var wire 1 K MemtoReg_ID $end
$var wire 1 L MemtoReg_MEM $end
$var wire 1 M MemtoReg_WB $end
$var wire 1 N NoOp $end
$var wire 1 O PCWrite $end
$var wire 32 P Readdata_MEM [31:0] $end
$var wire 32 Q Readdata_WB [31:0] $end
$var wire 1 R RegWrite_EX $end
$var wire 1 S RegWrite_ID $end
$var wire 1 T RegWrite_MEM $end
$var wire 1 U RegWrite_WB $end
$var wire 1 V Stall $end
$var wire 32 W Writedata_EX [31:0] $end
$var wire 32 X Writedata_MEM [31:0] $end
$var wire 32 Y Writedata_WB [31:0] $end
$var wire 1 Z clk_i $end
$var wire 1 [ cpu_stall $end
$var wire 32 \ data1_i [31:0] $end
$var wire 32 ] data1_o [31:0] $end
$var wire 32 ^ data2_i [31:0] $end
$var wire 32 _ data2_o [31:0] $end
$var wire 10 ` funct [9:0] $end
$var wire 32 a instr_i [31:0] $end
$var wire 32 b instr_o [31:0] $end
$var wire 1 % mem_ack_i $end
$var wire 32 c mem_addr_o [31:0] $end
$var wire 256 d mem_data_i [255:0] $end
$var wire 256 e mem_data_o [255:0] $end
$var wire 1 # mem_enable_o $end
$var wire 1 $ mem_write_o $end
$var wire 32 f pc_add [31:0] $end
$var wire 32 g pc_i [31:0] $end
$var wire 32 h pc_o [31:0] $end
$var wire 5 i rd_EX [4:0] $end
$var wire 5 j rd_MEM [4:0] $end
$var wire 5 k rd_WB [4:0] $end
$var wire 5 l rs1_EX [4:0] $end
$var wire 5 m rs2_EX [4:0] $end
$var wire 1 n rst_i $end
$var wire 1 o start_i $end
$var wire 1 p zero $end
$scope module MUX32_1 $end
$var wire 32 q data1_i [31:0] $end
$var wire 32 r data2_i [31:0] $end
$var wire 1 = select_i $end
$var reg 32 s data_o [31:0] $end
$upscope $end
$scope module MUX32_2 $end
$var wire 32 t data1_i [31:0] $end
$var wire 32 u data2_i [31:0] $end
$var wire 1 7 select_i $end
$var reg 32 v data_o [31:0] $end
$upscope $end
$scope module MUX32_3 $end
$var wire 32 w data1_i [31:0] $end
$var wire 32 x data2_i [31:0] $end
$var wire 1 M select_i $end
$var reg 32 y data_o [31:0] $end
$upscope $end
$scope module MUX4_A $end
$var wire 32 z data1_i [31:0] $end
$var wire 32 { data2_i [31:0] $end
$var wire 32 | data3_i [31:0] $end
$var wire 2 } select_i [1:0] $end
$var reg 32 ~ data_o [31:0] $end
$upscope $end
$scope module MUX4_B $end
$var wire 32 !" data1_i [31:0] $end
$var wire 32 "" data2_i [31:0] $end
$var wire 32 #" data3_i [31:0] $end
$var wire 2 $" select_i [1:0] $end
$var reg 32 %" data_o [31:0] $end
$upscope $end
$scope module PC $end
$var wire 1 O PCWrite_i $end
$var wire 1 Z clk_i $end
$var wire 32 &" pc_i [31:0] $end
$var wire 1 n rst_i $end
$var wire 1 [ stall_i $end
$var wire 1 o start_i $end
$var reg 32 '" pc_o [31:0] $end
$upscope $end
$scope module Add_PC $end
$var wire 32 (" data1_in [31:0] $end
$var wire 32 )" data2_in [31:0] $end
$var reg 32 *" data_o [31:0] $end
$upscope $end
$scope module Instruction_Memory $end
$var wire 32 +" addr_i [31:0] $end
$var wire 32 ," instr_o [31:0] $end
$upscope $end
$scope module IF_ID $end
$var wire 1 = Flush_i $end
$var wire 32 -" Instruction_i [31:0] $end
$var wire 32 ." PC_i [31:0] $end
$var wire 1 V Stall_i $end
$var wire 1 Z clk_i $end
$var wire 1 [ cpu_stall_i $end
$var wire 1 n rst_i $end
$var reg 32 /" Instruction_o [31:0] $end
$var reg 32 0" PC_o [31:0] $end
$upscope $end
$scope module Add_BEQ $end
$var wire 32 1" data1_in [31:0] $end
$var wire 32 2" data2_in [31:0] $end
$var reg 32 3" data_o [31:0] $end
$upscope $end
$scope module Registers $end
$var wire 5 4" RDaddr_i [4:0] $end
$var wire 32 5" RDdata_i [31:0] $end
$var wire 5 6" RS1addr_i [4:0] $end
$var wire 32 7" RS1data_o [31:0] $end
$var wire 5 8" RS2addr_i [4:0] $end
$var wire 32 9" RS2data_o [31:0] $end
$var wire 1 U RegWrite_i $end
$var wire 1 Z clk_i $end
$upscope $end
$scope module And $end
$var wire 1 < data1_i $end
$var wire 1 :" data2_i $end
$var reg 1 ;" data_o $end
$upscope $end
$scope module Control $end
$var wire 1 N NoOp_i $end
$var wire 7 <" Op_i [6:0] $end
$var reg 2 =" ALUOp_o [1:0] $end
$var reg 1 >" ALUSrc_o $end
$var reg 1 ?" Branch_o $end
$var reg 1 @" MemRead_o $end
$var reg 1 A" MemWrite_o $end
$var reg 1 B" MemtoReg_o $end
$var reg 1 C" RegWrite_o $end
$upscope $end
$scope module ImmGen $end
$var wire 32 D" data_i [31:0] $end
$var reg 32 E" data_o [31:0] $end
$upscope $end
$scope module Hazard_Detection $end
$var wire 1 D MemRead_i $end
$var wire 5 F" rd_i [4:0] $end
$var wire 5 G" rs1_i [4:0] $end
$var wire 5 H" rs2_i [4:0] $end
$var reg 1 I" NoOp_o $end
$var reg 1 J" PCWrite_o $end
$var reg 1 K" Stall_o $end
$upscope $end
$scope module ID_EX $end
$var wire 2 L" ALUOp_i [1:0] $end
$var wire 1 8 ALUSrc_i $end
$var wire 32 M" ImmGen_i [31:0] $end
$var wire 1 E MemRead_i $end
$var wire 1 H MemWrite_i $end
$var wire 1 K MemtoReg_i $end
$var wire 1 S RegWrite_i $end
$var wire 1 Z clk_i $end
$var wire 1 [ cpu_stall_i $end
$var wire 32 N" data1_i [31:0] $end
$var wire 32 O" data2_i [31:0] $end
$var wire 10 P" funct_i [9:0] $end
$var wire 5 Q" rd_i [4:0] $end
$var wire 5 R" rs1_i [4:0] $end
$var wire 5 S" rs2_i [4:0] $end
$var wire 1 n rst_i $end
$var reg 2 T" ALUOp_o [1:0] $end
$var reg 1 U" ALUSrc_o $end
$var reg 32 V" ImmGen_o [31:0] $end
$var reg 1 W" MemRead_o $end
$var reg 1 X" MemWrite_o $end
$var reg 1 Y" MemtoReg_o $end
$var reg 1 Z" RegWrite_o $end
$var reg 32 [" data1_o [31:0] $end
$var reg 32 \" data2_o [31:0] $end
$var reg 10 ]" funct_o [9:0] $end
$var reg 5 ^" rd_o [4:0] $end
$var reg 5 _" rs1_o [4:0] $end
$var reg 5 `" rs2_o [4:0] $end
$upscope $end
$scope module ALU $end
$var wire 4 a" ALUCtrl_i [3:0] $end
$var wire 32 b" data1_i [31:0] $end
$var wire 32 c" data2_i [31:0] $end
$var reg 1 d" Zero_o $end
$var reg 32 e" data_o [31:0] $end
$upscope $end
$scope module ALU_Control $end
$var wire 2 f" ALUOp_i [1:0] $end
$var wire 10 g" funct_i [9:0] $end
$var reg 4 h" ALUCtrl_o [3:0] $end
$upscope $end
$scope module Forward $end
$var wire 1 T RegWrite_MEM_i $end
$var wire 1 U RegWrite_WB_i $end
$var wire 5 i" rd_MEM_i [4:0] $end
$var wire 5 j" rd_WB_i [4:0] $end
$var wire 5 k" rs1_EX_i [4:0] $end
$var wire 5 l" rs2_EX_i [4:0] $end
$var reg 2 m" ForwardA_o [1:0] $end
$var reg 2 n" ForwardB_o [1:0] $end
$upscope $end
$scope module EX_MEM $end
$var wire 1 D MemRead_i $end
$var wire 1 G MemWrite_i $end
$var wire 1 J MemtoReg_i $end
$var wire 1 R RegWrite_i $end
$var wire 32 o" Writedata_i [31:0] $end
$var wire 1 Z clk_i $end
$var wire 1 [ cpu_stall_i $end
$var wire 32 p" data_i [31:0] $end
$var wire 5 q" rd_i [4:0] $end
$var wire 1 n rst_i $end
$var reg 1 r" MemRead_o $end
$var reg 1 s" MemWrite_o $end
$var reg 1 t" MemtoReg_o $end
$var reg 1 u" RegWrite_o $end
$var reg 32 v" Writedata_o [31:0] $end
$var reg 32 w" data_o [31:0] $end
$var reg 5 x" rd_o [4:0] $end
$upscope $end
$scope module dcache $end
$var wire 1 y" cache_dirty $end
$var wire 256 z" cache_sram_data [255:0] $end
$var wire 1 {" cache_sram_enable $end
$var wire 4 |" cache_sram_index [3:0] $end
$var wire 25 }" cache_sram_tag [24:0] $end
$var wire 1 ~" cache_sram_write $end
$var wire 1 Z clk_i $end
$var wire 1 F cpu_MemRead_i $end
$var wire 1 I cpu_MemWrite_i $end
$var wire 32 !# cpu_addr_i [31:0] $end
$var wire 32 "# cpu_data_i [31:0] $end
$var wire 32 ## cpu_data_o [31:0] $end
$var wire 4 $# cpu_index [3:0] $end
$var wire 5 %# cpu_offset [4:0] $end
$var wire 1 &# cpu_req $end
$var wire 1 [ cpu_stall_o $end
$var wire 23 '# cpu_tag [22:0] $end
$var wire 1 (# hit $end
$var wire 1 % mem_ack_i $end
$var wire 32 )# mem_addr_o [31:0] $end
$var wire 256 *# mem_data_i [255:0] $end
$var wire 256 +# mem_data_o [255:0] $end
$var wire 1 # mem_enable_o $end
$var wire 1 $ mem_write_o $end
$var wire 256 ,# r_hit_data [255:0] $end
$var wire 1 n rst_i $end
$var wire 256 -# sram_cache_data [255:0] $end
$var wire 25 .# sram_cache_tag [24:0] $end
$var wire 1 /# sram_dirty $end
$var wire 22 0# sram_tag [21:0] $end
$var wire 1 1# sram_valid $end
$var wire 1 2# write_hit $end
$var reg 1 3# cache_write $end
$var reg 32 4# cpu_data [31:0] $end
$var reg 1 5# mem_enable $end
$var reg 1 6# mem_write $end
$var reg 3 7# state [2:0] $end
$var reg 256 8# w_hit_data [255:0] $end
$var reg 1 9# write_back $end
$scope module dcache_sram $end
$var wire 4 :# addr_i [3:0] $end
$var wire 1 Z clk_i $end
$var wire 256 ;# data_i [255:0] $end
$var wire 1 {" enable_i $end
$var wire 1 n rst_i $end
$var wire 25 <# tag_i [24:0] $end
$var wire 1 ~" write_i $end
$var reg 256 =# data_o [255:0] $end
$var reg 1 ># hit_o $end
$var integer 32 ?# i [31:0] $end
$var reg 25 @# tag_o [24:0] $end
$upscope $end
$upscope $end
$scope module MEM_WB $end
$var wire 1 L MemtoReg_i $end
$var wire 32 A# Readdata_i [31:0] $end
$var wire 1 T RegWrite_i $end
$var wire 1 Z clk_i $end
$var wire 1 [ cpu_stall_i $end
$var wire 32 B# data_i [31:0] $end
$var wire 5 C# rd_i [4:0] $end
$var wire 1 n rst_i $end
$var reg 1 D# MemtoReg_o $end
$var reg 32 E# Readdata_o [31:0] $end
$var reg 1 F# RegWrite_o $end
$var reg 32 G# data_o [31:0] $end
$var reg 5 H# rd_o [4:0] $end
$upscope $end
$upscope $end
$scope module Data_Memory $end
$var wire 1 % ack_o $end
$var wire 27 I# addr [26:0] $end
$var wire 32 J# addr_i [31:0] $end
$var wire 1 Z clk_i $end
$var wire 256 K# data_i [255:0] $end
$var wire 256 L# data_o [255:0] $end
$var wire 1 # enable_i $end
$var wire 1 n rst_i $end
$var wire 1 $ write_i $end
$var reg 4 M# count [3:0] $end
$var reg 256 N# data [255:0] $end
$var reg 2 O# state [1:0] $end
$upscope $end
$upscope $end
$enddefinitions $end
#0
$dumpvars
b0 O#
bx N#
b0 M#
bx L#
bx K#
b0 J#
b0 I#
b0 H#
b0 G#
0F#
b0 E#
0D#
b0 C#
b0 B#
bx A#
b0 @#
b10000 ?#
0>#
bx =#
b1000000000000000000000000 <#
bx ;#
b0 :#
09#
bx00000000000000000000000000000000 8#
b0 7#
06#
05#
bx 4#
03#
02#
01#
b0 0#
0/#
b0 .#
bx -#
bx ,#
bx +#
bx *#
b0 )#
0(#
b0 '#
0&#
b0 %#
b0 $#
bx ##
b0 "#
b0 !#
0~"
b1000000000000000000000000 }"
b0 |"
0{"
bx z"
0y"
b0 x"
b0 w"
b0 v"
0u"
0t"
0s"
0r"
b0 q"
b0 p"
b0 o"
b0 n"
b0 m"
b0 l"
b0 k"
b0 j"
b0 i"
b110 h"
b0 g"
b0 f"
b0 e"
1d"
b0 c"
b0 b"
b110 a"
b0 `"
b0 _"
b0 ^"
b0 ]"
b0 \"
b0 ["
0Z"
0Y"
0X"
0W"
b0 V"
0U"
b0 T"
b0 S"
b0 R"
b0 Q"
b0 P"
bx O"
bx N"
b0 M"
b10 L"
0K"
1J"
0I"
b0 H"
b0 G"
b0 F"
b0 E"
b0 D"
1C"
0B"
0A"
0@"
0?"
0>"
b10 ="
b0 <"
0;"
x:"
bx 9"
b0 8"
bx 7"
b0 6"
b0 5"
b0 4"
b0 3"
b0 2"
b0 1"
b0 0"
b0 /"
b0 ."
bx -"
bx ,"
b0 +"
b100 *"
b100 )"
b0 ("
b0 '"
b100 &"
b0 %"
b0 $"
b0 #"
b0 ""
b0 !"
b0 ~
b0 }
b0 |
b0 {
b0 z
b0 y
b0 x
b0 w
b0 v
b0 u
b0 t
b100 s
b0 r
b100 q
1p
0o
1n
b0 m
b0 l
b0 k
b0 j
b0 i
b0 h
b100 g
b0 f
bx e
bx d
b0 c
b0 b
bx a
b0 `
b0 _
bx ^
b0 ]
bx \
0[
0Z
b0 Y
b0 X
b0 W
0V
0U
0T
1S
0R
b0 Q
bx P
1O
0N
0M
0L
0K
0J
0I
0H
0G
0F
0E
0D
b0 C
b100 B
b0 A
b0 @
b0 ?
b0 >
0=
0<
b0 ;
b0 :
b0 9
08
07
b10 6
b0 5
b110 4
b0 3
b0 2
bx 1
bx 0
bx /
bx .
bx -
x,
b0 +
bx *
0)
1(
0'
bx &
0%
0$
0#
bx "
b0 !
$end
#12
0;"
1:"
b0 \
b0 7"
b0 N"
b0 ^
b0 9"
b0 O"
b101 0
b11 /
b0 a
b0 ,"
b0 -"
b1000000000 -
1)
1o
0(
0n
#25
b1000 s
b1000 g
b1000 &"
b11 h"
b11 4
b11 a"
b1000 *"
b1000 B
b1000 q
bx E#
bx Q
bx x
b10 T"
b10 5
b10 f"
1Z"
1R
b100 '"
b100 h
b100 ("
b100 +"
b100 ."
b1 +
0,
1'
1Z
#50
0'
0Z
#75
b1100 s
b1100 g
b1100 &"
b1100 *"
b1100 B
b1100 q
b100 3"
b100 C
b100 r
b1000 '"
b1000 h
b1000 ("
b1000 +"
b1000 ."
b100 0"
b100 f
b100 2"
1u"
1T
b10 +
1'
1Z
#100
0'
0Z
#125
b10000 s
b10000 g
b10000 &"
b1000 3"
b1000 C
b1000 r
b10000 *"
b10000 B
b10000 q
1F#
1U
b1000 0"
b1000 f
b1000 2"
b1100 '"
b1100 h
b1100 ("
b1100 +"
b1100 ."
b11 +
1'
1Z
#150
0'
0Z
#175
b10100 s
b10100 g
b10100 &"
b10100 *"
b10100 B
b10100 q
b1100 3"
b1100 C
b1100 r
b10000 '"
b10000 h
b10000 ("
b10000 +"
b10000 ."
b1100 0"
b1100 f
b1100 2"
b100 +
1'
1Z
#200
0'
0Z
#225
b11000 s
b11000 g
b11000 &"
b10000 3"
b10000 C
b10000 r
b11000 *"
b11000 B
b11000 q
b10000 0"
b10000 f
b10000 2"
b10100 '"
b10100 h
b10100 ("
b10100 +"
b10100 ."
b101 +
1'
1Z
#250
0'
0Z
#275
b11100 s
b11100 g
b11100 &"
b11100 *"
b11100 B
b11100 q
b10100 3"
b10100 C
b10100 r
b11000 '"
b11000 h
b11000 ("
b11000 +"
b11000 ."
b10100 0"
b10100 f
b10100 2"
b110 +
1'
1Z
#300
0'
0Z
#325
b100000 s
b100000 g
b100000 &"
b11000 3"
b11000 C
b11000 r
b100000 *"
b100000 B
b100000 q
b11000 0"
b11000 f
b11000 2"
b11100 '"
b11100 h
b11100 ("
b11100 +"
b11100 ."
b111 +
1'
1Z
#350
0'
0Z
#375
b100100 s
b100100 g
b100100 &"
b100100 *"
b100100 B
b100100 q
b11100 3"
b11100 C
b11100 r
b100000 '"
b100000 h
b100000 ("
b100000 +"
b100000 ."
b11100 0"
b11100 f
b11100 2"
b1000 +
1'
1Z
#400
0'
0Z
#425
b101000 s
b101000 g
b101000 &"
b100000 3"
b100000 C
b100000 r
b101000 *"
b101000 B
b101000 q
b100000 0"
b100000 f
b100000 2"
b100100 '"
b100100 h
b100100 ("
b100100 +"
b100100 ."
b1001 +
1'
1Z
#450
0'
0Z
#475
b101100 s
b101100 g
b101100 &"
b101100 *"
b101100 B
b101100 q
b100100 3"
b100100 C
b100100 r
b101000 '"
b101000 h
b101000 ("
b101000 +"
b101000 ."
b100100 0"
b100100 f
b100100 2"
b1010 +
1'
1Z
#500
0'
0Z
#525
b110000 s
b110000 g
b110000 &"
b101000 3"
b101000 C
b101000 r
b110000 *"
b110000 B
b110000 q
b101000 0"
b101000 f
b101000 2"
b101100 '"
b101100 h
b101100 ("
b101100 +"
b101100 ."
b1011 +
1'
1Z
#550
0'
0Z
#575
b110100 s
b110100 g
b110100 &"
b110100 *"
b110100 B
b110100 q
b101100 3"
b101100 C
b101100 r
b110000 '"
b110000 h
b110000 ("
b110000 +"
b110000 ."
b101100 0"
b101100 f
b101100 2"
b1100 +
1'
1Z
#600
0'
0Z
#625
b111000 s
b111000 g
b111000 &"
b110000 3"
b110000 C
b110000 r
b111000 *"
b111000 B
b111000 q
b110000 0"
b110000 f
b110000 2"
b110100 '"
b110100 h
b110100 ("
b110100 +"
b110100 ."
b1101 +
1'
1Z
#650
0'
0Z
#675
b111100 s
b111100 g
b111100 &"
b111100 *"
b111100 B
b111100 q
b110100 3"
b110100 C
b110100 r
b111000 '"
b111000 h
b111000 ("
b111000 +"
b111000 ."
b110100 0"
b110100 f
b110100 2"
b1110 +
1'
1Z
#700
0'
0Z
#725
b1000000 s
b1000000 g
b1000000 &"
b111000 3"
b111000 C
b111000 r
b1000000 *"
b1000000 B
b1000000 q
b111000 0"
b111000 f
b111000 2"
b111100 '"
b111100 h
b111100 ("
b111100 +"
b111100 ."
b1111 +
1'
1Z
#750
0'
0Z
#775
b1000100 s
b1000100 g
b1000100 &"
b1000100 *"
b1000100 B
b1000100 q
b111100 3"
b111100 C
b111100 r
b1000000 '"
b1000000 h
b1000000 ("
b1000000 +"
b1000000 ."
b111100 0"
b111100 f
b111100 2"
b10000 +
1'
1Z
#800
0'
0Z
#825
b1001000 s
b1001000 g
b1001000 &"
b1000000 3"
b1000000 C
b1000000 r
b1001000 *"
b1001000 B
b1001000 q
b1000000 0"
b1000000 f
b1000000 2"
b1000100 '"
b1000100 h
b1000100 ("
b1000100 +"
b1000100 ."
b10001 +
1'
1Z
#850
0'
0Z
#875
b1001100 s
b1001100 g
b1001100 &"
b1001100 *"
b1001100 B
b1001100 q
b1000100 3"
b1000100 C
b1000100 r
b1001000 '"
b1001000 h
b1001000 ("
b1001000 +"
b1001000 ."
b1000100 0"
b1000100 f
b1000100 2"
b10010 +
1'
1Z
#900
0'
0Z
#925
b1010000 s
b1010000 g
b1010000 &"
b1001000 3"
b1001000 C
b1001000 r
b1010000 *"
b1010000 B
b1010000 q
b1001000 0"
b1001000 f
b1001000 2"
b1001100 '"
b1001100 h
b1001100 ("
b1001100 +"
b1001100 ."
b10011 +
1'
1Z
#950
0'
0Z
#975
b1010100 s
b1010100 g
b1010100 &"
b1010100 *"
b1010100 B
b1010100 q
b1001100 3"
b1001100 C
b1001100 r
b1010000 '"
b1010000 h
b1010000 ("
b1010000 +"
b1010000 ."
b1001100 0"
b1001100 f
b1001100 2"
b10100 +
1'
1Z
#1000
0'
0Z
#1025
b1011000 s
b1011000 g
b1011000 &"
b1010000 3"
b1010000 C
b1010000 r
b1011000 *"
b1011000 B
b1011000 q
b1010000 0"
b1010000 f
b1010000 2"
b1010100 '"
b1010100 h
b1010100 ("
b1010100 +"
b1010100 ."
b10101 +
1'
1Z
#1050
0'
0Z
#1075
b1011100 s
b1011100 g
b1011100 &"
b1011100 *"
b1011100 B
b1011100 q
b1010100 3"
b1010100 C
b1010100 r
b1011000 '"
b1011000 h
b1011000 ("
b1011000 +"
b1011000 ."
b1010100 0"
b1010100 f
b1010100 2"
b10110 +
1'
1Z
#1100
0'
0Z
#1125
b1100000 s
b1100000 g
b1100000 &"
b1011000 3"
b1011000 C
b1011000 r
b1100000 *"
b1100000 B
b1100000 q
b1011000 0"
b1011000 f
b1011000 2"
b1011100 '"
b1011100 h
b1011100 ("
b1011100 +"
b1011100 ."
b10111 +
1'
1Z
#1150
0'
0Z
#1175
b1100100 s
b1100100 g
b1100100 &"
b1100100 *"
b1100100 B
b1100100 q
b1011100 3"
b1011100 C
b1011100 r
b1100000 '"
b1100000 h
b1100000 ("
b1100000 +"
b1100000 ."
b1011100 0"
b1011100 f
b1011100 2"
b11000 +
1'
1Z
#1200
0'
0Z
#1225
b1101000 s
b1101000 g
b1101000 &"
b1100000 3"
b1100000 C
b1100000 r
b1101000 *"
b1101000 B
b1101000 q
b1100000 0"
b1100000 f
b1100000 2"
b1100100 '"
b1100100 h
b1100100 ("
b1100100 +"
b1100100 ."
b11001 +
1'
1Z
#1250
0'
0Z
#1275
b1101100 s
b1101100 g
b1101100 &"
b1101100 *"
b1101100 B
b1101100 q
b1100100 3"
b1100100 C
b1100100 r
b1101000 '"
b1101000 h
b1101000 ("
b1101000 +"
b1101000 ."
b1100100 0"
b1100100 f
b1100100 2"
b11010 +
1'
1Z
#1300
0'
0Z
#1325
b1110000 s
b1110000 g
b1110000 &"
b1101000 3"
b1101000 C
b1101000 r
b1110000 *"
b1110000 B
b1110000 q
b1101000 0"
b1101000 f
b1101000 2"
b1101100 '"
b1101100 h
b1101100 ("
b1101100 +"
b1101100 ."
b11011 +
1'
1Z
#1350
0'
0Z
#1375
b1110100 s
b1110100 g
b1110100 &"
b1110100 *"
b1110100 B
b1110100 q
b1101100 3"
b1101100 C
b1101100 r
b1110000 '"
b1110000 h
b1110000 ("
b1110000 +"
b1110000 ."
b1101100 0"
b1101100 f
b1101100 2"
b11100 +
1'
1Z
#1400
0'
0Z
#1425
b1111000 s
b1111000 g
b1111000 &"
b1110000 3"
b1110000 C
b1110000 r
b1111000 *"
b1111000 B
b1111000 q
b1110000 0"
b1110000 f
b1110000 2"
b1110100 '"
b1110100 h
b1110100 ("
b1110100 +"
b1110100 ."
b11101 +
1'
1Z
#1450
0'
0Z
#1475
b1111100 s
b1111100 g
b1111100 &"
b1111100 *"
b1111100 B
b1111100 q
b1110100 3"
b1110100 C
b1110100 r
b1111000 '"
b1111000 h
b1111000 ("
b1111000 +"
b1111000 ."
b1110100 0"
b1110100 f
b1110100 2"
b11110 +
1'
1Z
#1500
0'
0Z
#1525
b10000000 s
b10000000 g
b10000000 &"
b1111000 3"
b1111000 C
b1111000 r
b10000000 *"
b10000000 B
b10000000 q
b1111000 0"
b1111000 f
b1111000 2"
b1111100 '"
b1111100 h
b1111100 ("
b1111100 +"
b1111100 ."
b11111 +
1'
1Z
#1550
0'
0Z
#1575
b10000100 s
b10000100 g
b10000100 &"
b10000100 *"
b10000100 B
b10000100 q
b1111100 3"
b1111100 C
b1111100 r
b10000000 '"
b10000000 h
b10000000 ("
b10000000 +"
b10000000 ."
b1111100 0"
b1111100 f
b1111100 2"
b100000 +
1'
1Z
#1600
0'
0Z
#1625
b10001000 s
b10001000 g
b10001000 &"
b10000000 3"
b10000000 C
b10000000 r
b10001000 *"
b10001000 B
b10001000 q
b10000000 0"
b10000000 f
b10000000 2"
b10000100 '"
b10000100 h
b10000100 ("
b10000100 +"
b10000100 ."
b100001 +
1'
1Z
#1650
0'
0Z
#1675
b10001100 s
b10001100 g
b10001100 &"
b10001100 *"
b10001100 B
b10001100 q
b10000100 3"
b10000100 C
b10000100 r
b10001000 '"
b10001000 h
b10001000 ("
b10001000 +"
b10001000 ."
b10000100 0"
b10000100 f
b10000100 2"
b100010 +
1'
1Z
#1700
0'
0Z
#1725
b10010000 s
b10010000 g
b10010000 &"
b10001000 3"
b10001000 C
b10001000 r
b10010000 *"
b10010000 B
b10010000 q
b10001000 0"
b10001000 f
b10001000 2"
b10001100 '"
b10001100 h
b10001100 ("
b10001100 +"
b10001100 ."
b100011 +
1'
1Z
#1750
0'
0Z
#1775
b10010100 s
b10010100 g
b10010100 &"
b10010100 *"
b10010100 B
b10010100 q
b10001100 3"
b10001100 C
b10001100 r
b10010000 '"
b10010000 h
b10010000 ("
b10010000 +"
b10010000 ."
b10001100 0"
b10001100 f
b10001100 2"
b100100 +
1'
1Z
#1800
0'
0Z
#1825
b10011000 s
b10011000 g
b10011000 &"
b10010000 3"
b10010000 C
b10010000 r
b10011000 *"
b10011000 B
b10011000 q
b10010000 0"
b10010000 f
b10010000 2"
b10010100 '"
b10010100 h
b10010100 ("
b10010100 +"
b10010100 ."
b100101 +
1'
1Z
#1850
0'
0Z
#1875
b10011100 s
b10011100 g
b10011100 &"
b10011100 *"
b10011100 B
b10011100 q
b10010100 3"
b10010100 C
b10010100 r
b10011000 '"
b10011000 h
b10011000 ("
b10011000 +"
b10011000 ."
b10010100 0"
b10010100 f
b10010100 2"
b100110 +
1'
1Z
#1900
0'
0Z
#1925
b10100000 s
b10100000 g
b10100000 &"
b10011000 3"
b10011000 C
b10011000 r
b10100000 *"
b10100000 B
b10100000 q
b10011000 0"
b10011000 f
b10011000 2"
b10011100 '"
b10011100 h
b10011100 ("
b10011100 +"
b10011100 ."
b100111 +
1'
1Z
#1950
0'
0Z
#1975
b10100100 s
b10100100 g
b10100100 &"
b10100100 *"
b10100100 B
b10100100 q
b10011100 3"
b10011100 C
b10011100 r
b10100000 '"
b10100000 h
b10100000 ("
b10100000 +"
b10100000 ."
b10011100 0"
b10011100 f
b10011100 2"
b101000 +
1'
1Z
#2000
0'
0Z
#2025
b10101000 s
b10101000 g
b10101000 &"
b10100000 3"
b10100000 C
b10100000 r
b10101000 *"
b10101000 B
b10101000 q
b10100000 0"
b10100000 f
b10100000 2"
b10100100 '"
b10100100 h
b10100100 ("
b10100100 +"
b10100100 ."
b101001 +
1'
1Z
#2050
0'
0Z
#2075
b10101100 s
b10101100 g
b10101100 &"
b10101100 *"
b10101100 B
b10101100 q
b10100100 3"
b10100100 C
b10100100 r
b10101000 '"
b10101000 h
b10101000 ("
b10101000 +"
b10101000 ."
b10100100 0"
b10100100 f
b10100100 2"
b101010 +
1'
1Z
#2100
0'
0Z
#2125
b10110000 s
b10110000 g
b10110000 &"
b10101000 3"
b10101000 C
b10101000 r
b10110000 *"
b10110000 B
b10110000 q
b10101000 0"
b10101000 f
b10101000 2"
b10101100 '"
b10101100 h
b10101100 ("
b10101100 +"
b10101100 ."
b101011 +
1'
1Z
#2150
0'
0Z
#2175
b10110100 s
b10110100 g
b10110100 &"
b10110100 *"
b10110100 B
b10110100 q
b10101100 3"
b10101100 C
b10101100 r
b10110000 '"
b10110000 h
b10110000 ("
b10110000 +"
b10110000 ."
b10101100 0"
b10101100 f
b10101100 2"
b101100 +
1'
1Z
#2200
0'
0Z
#2225
b10111000 s
b10111000 g
b10111000 &"
b10110000 3"
b10110000 C
b10110000 r
b10111000 *"
b10111000 B
b10111000 q
b10110000 0"
b10110000 f
b10110000 2"
b10110100 '"
b10110100 h
b10110100 ("
b10110100 +"
b10110100 ."
b101101 +
1'
1Z
#2250
0'
0Z
#2275
b10111100 s
b10111100 g
b10111100 &"
b10111100 *"
b10111100 B
b10111100 q
b10110100 3"
b10110100 C
b10110100 r
b10111000 '"
b10111000 h
b10111000 ("
b10111000 +"
b10111000 ."
b10110100 0"
b10110100 f
b10110100 2"
b101110 +
1'
1Z
#2300
0'
0Z
#2325
b11000000 s
b11000000 g
b11000000 &"
b10111000 3"
b10111000 C
b10111000 r
b11000000 *"
b11000000 B
b11000000 q
b10111000 0"
b10111000 f
b10111000 2"
b10111100 '"
b10111100 h
b10111100 ("
b10111100 +"
b10111100 ."
b101111 +
1'
1Z
#2350
0'
0Z
#2375
b11000100 s
b11000100 g
b11000100 &"
b11000100 *"
b11000100 B
b11000100 q
b10111100 3"
b10111100 C
b10111100 r
b11000000 '"
b11000000 h
b11000000 ("
b11000000 +"
b11000000 ."
b10111100 0"
b10111100 f
b10111100 2"
b110000 +
1'
1Z
#2400
0'
0Z
